Intro-to-the-Tidyverse.knit
…
Much simpler.

---

# Let's deconstruct that: `filter()`

The `filter` function will give you back what you ask it for. You can think about it as "including" the observations matching your criterion. Note the lack of dollar signs.

```r
penguins %>% 
  filter(species == "Adelie")
```

```
## # A tibble: 152 × 8
##   species island bill_length_mm bill_depth_mm flipper_length_… body_mass_g sex  
##   <fct>   <fct>           <dbl>         <dbl>            <int>       <int> <fct>
## 1 Adelie  Torge…           39.1          18.7              181        3750 male 
## 2 Adelie  Torge…           39.5          17.4              186        3800 fema…
## 3 Adelie  Torge…           40.3          18                195        3250 fema…
## 4 Adelie  Torge…           NA            NA                 NA          NA <NA> 
## 5 Adelie  Torge…           36.7          19.3              193        3450 fema…
## # … with 147 more rows, and 1 more variable: year <int>
```
…
---

# Let's deconstruct that: `filter()`

Just put it before your condition:

```r
penguins %>% 
  filter(!species %in% c("Chinstrap"))
```

```
## # A tibble: 276 × 8
##   species island bill_length_mm bill_depth_mm flipper_length_… body_mass_g sex  
##   <fct>   <fct>           <dbl>         <dbl>            <int>       <int> <fct>
## 1 Adelie  Torge…           39.1          18.7              181        3750 male 
## 2 Adelie  Torge…           39.5          17.4              186        3800 fema…
## 3 Adelie  Torge…           40.3          18                195        3250 fema…
## 4 Adelie  Torge…           NA            NA                 NA          NA <NA> 
## 5 Adelie  Torge…           36.7          19.3              193        3450 fema…
## # … with 271 more rows, and 1 more variable: year <int>
```
…
<img src="Intro-to-the-Tidyverse_files/figure-html/unnamed-chunk-40-1.png" width="100%" />

---

# `drop_na` and `select`

So we need to select the columns we need first:

```r
penguins %>% 
  select(species, sex, body_mass_g)
```

```
## # A tibble: 344 × 3
##    species sex    body_mass_g
##    <fct>   <fct>        <int>
##  1 Adelie  male          3750
##  2 Adelie  female        3800
##  3 Adelie  female        3250
##  4 Adelie  <NA>            NA
##  5 Adelie  female        3450
##  6 Adelie  male          3650
##  7 Adelie  female        3625
##  8 Adelie  male          4675
##  9 Adelie  <NA>          3475
## 10 Adelie  <NA>          4250
## # … with 334 more rows
```

---

# `drop_na` and `select`

**Then** drop.

```r
penguins %>% 
  select(species, sex, body_mass_g) %>% 
  drop_na()
```

```
## # A tibble: 333 × 3
##    species sex    body_mass_g
##    <fct>   <fct>        <int>
##  1 Adelie  male          3750
##  2 Adelie  female        3800
##  3 Adelie  female        3250
##  4 Adelie  female        3450
##  5 Adelie  male          3650
##  6 Adelie  female        3625
##  7 Adelie  male          4675
##  8 Adelie  female        3200
##  9 Adelie  male          3800
## 10 Adelie  male          4400
## # … with 323 more rows
```
…
