Intro-to-Tidymodels.knit
…
---

### grower_name

```r
pumpkins %>% 
  count(grower_name, sort = T)
```

```
## # A tibble: 6,508 × 2
##    grower_name              n
##    <chr>                <int>
##  1 Platte, Joe             47
##  2 Sherwood, Jim           42
##  3 Gansert, Norman         41
##  4 Wolf, Andy              41
##  5 Miller, Gary            38
##  6 Karkos, Udo             34
##  7 Melka, Friedrich        34
##  8 Werner, Quinn           33
##  9 Tobeck, Cindy           32
## 10 Stelts, Dave & Carol    31
## # … with 6,498 more rows
```

Some recurring names, less frequent should be lumped together.

---

### city

```r
pumpkins %>% 
  count(city, sort = T)
```

```
## # A tibble: 2,737 × 2
##    city            n
##    <chr>       <int>
##  1 <NA>         1569
##  2 Napa          152
##  3 Barnesville    93
##  4 Kasterlee      90
##  5 Paredes        73
##  6 Gentilly       68
##  7 Olympia        65
##  8 Auburn         64
##  9 Johnston       62
## 10 Kaukauna       60
## # … with 2,727 more rows
```

Same again.

---

### state_prov

```r
pumpkins %>% 
  count(state_prov, sort = T)
```

```
## # A tibble: 134 × 2
##    state_prov       n
##    <chr>        <int>
##  1 Other         1549
##  2 Wisconsin     1031
##  3 California     991
##  4 Ontario        836
##  5 Ohio           713
##  6 Washington     712
##  7 Michigan       633
##  8 Pennsylvania   540
##  9 New York       505
## 10 Oregon         464
## # … with 124 more rows
```

Again.

---

### country

```r
pumpkins %>% 
  count(country, sort = T)
```

```
## # A tibble: 30 × 2
##    country            n
##    <chr>          <int>
##  1 United States   9902
##  2 Canada          2163
##  3 Germany         1144
##  4 Italy            512
##  5 Austria          390
##  6 Japan            333
##  7 Belgium          291
##  8 United Kingdom   179
##  9 Spain            173
## 10 Slovenia         158
## # … with 20 more rows
```

Not that bad this time, likely fewer are enough.

---

### gpc_site

```r
pumpkins %>% 
  count(gpc_site, sort = T)
```

```
## # A tibble: 173 × 2
##    gpc_site                                         n
##    <chr>                                        <int>
##  1 Wiegemeisterschaft Berlin/Brandenburg          453
##  2 Ohio Valley Giant Pumpkin Growers Weigh-off    376
##  3 Elk Grove Giant Pumpkin Festival               359
##  4 Nippon Ichi Dodekabocha Taikai                 333
##  5 Baumans Farm Giant Pumpkin Weigh-off           307
##  6 Stillwater Harvestfest                         298
##  7 Austrian Weigh-off                             285
##  8 Central Great Lakes Weigh-off                  271
##  9 Safeway World Championship Pumpkin Weigh-Off   270
## 10 Nekoosa Giant Pumpkin Fest                     263
## # … with 163 more rows
```

Again.

---

### seed_mother

```r
pumpkins %>% 
  count(seed_mother, sort = T)
```

```
## # A tibble: 6,009 × 2
##    seed_mother       n
##    <chr>         <int>
##  1 <NA>           4424
##  2 unknown         169
##  3 Unknown         145
##  4 2145 McMullen   122
##  5 2009 Wallace    104
##  6 1985 Miller      89
##  7 1911 Urena       72
##  8 2363 Holland     61
##  9 2008 Neptune     60
## 10 1495 Stelts      52
## # … with 5,999 more rows
```

Way too many levels, also likely not useful if seeds cannot be used in the future.

---

### pollinator_father

```r
pumpkins %>% 
  count(pollinator_father, sort = T)
```

```
## # A tibble: 3,465 × 2
##    pollinator_father     n
##    <chr>             <int>
##  1 <NA>               5160
##  2 self               1127
##  3 Self               1101
##  4 open                773
##  5 Open                665
##  6 2009 Wallace        143
##  7 2145 McMullen       124
##  8 unknown              82
##  9 Unknown              77
## 10 1985 Miller          68
## # … with 3,455 more rows
```
…
---

### Inspecting our final fit

```r
xg_final_fit %>% 
  collect_predictions()
```

```
## # A tibble: 2,133 × 5
##    id               .pred  .row weight_kg .config             
##    <chr>            <dbl> <int>     <dbl> <chr>               
##  1 train/test split  419.     4      453. Preprocessor1_Model1
##  2 train/test split  431.     7      452. Preprocessor1_Model1
##  3 train/test split  431.     9      452. Preprocessor1_Model1
##  4 train/test split  419.    12      450. Preprocessor1_Model1
##  5 train/test split  398.    14      449. Preprocessor1_Model1
##  6 train/test split  436.    15      449. Preprocessor1_Model1
##  7 train/test split  413.    21      446. Preprocessor1_Model1
##  8 train/test split  436.    25      445. Preprocessor1_Model1
##  9 train/test split  416.    28      444. Preprocessor1_Model1
## 10 train/test split  429.    38      437. Preprocessor1_Model1
## # … with 2,123 more rows
```
…
