Canadian-Wind-Turbines.knit
…
---

### `commissioning_date`

```r
wind <- wind %>% 
  mutate(year = parse_number(commissioning_date) %>% as.factor)

wind %>% 
  count(year)
```

```
## # A tibble: 25 × 2
##    year      n
##    <fct> <int>
##  1 1993      2
##  2 1995      1
##  3 1997      1
##  4 1998      3
##  5 1999    132
##  6 2000     61
##  7 2001     66
##  8 2002     11
##  9 2003    116
## 10 2004    121
## # … with 15 more rows
```
…
