Intro_to_R.knit
…
---

### Step 1: Subsetting

- Subset the data frame for one sex

```r
penguins[penguins$sex == "male",]
```

```
## # A tibble: 179 × 8
##    species island    bill_length_mm bill_depth_mm flipper_length_mm body_mass_g
##    <fct>   <fct>              <dbl>         <dbl>             <int>       <int>
##  1 Adelie  Torgersen           39.1          18.7               181        3750
##  2 <NA>    <NA>                NA            NA                  NA          NA
##  3 Adelie  Torgersen           39.3          20.6               190        3650
##  4 Adelie  Torgersen           39.2          19.6               195        4675
##  5 <NA>    <NA>                NA            NA                  NA          NA
##  6 <NA>    <NA>                NA            NA                  NA          NA
##  7 <NA>    <NA>                NA            NA                  NA          NA
##  8 <NA>    <NA>                NA            NA                  NA          NA
##  9 Adelie  Torgersen           38.6          21.2               191        3800
## 10 Adelie  Torgersen           34.6          21.1               198        4400
## # … with 169 more rows, and 2 more variables: sex <fct>, year <int>
```
…
```
## # A tibble: 2 × 6
##   sex    bill_length_mm bill_depth_mm flipper_length_mm body_mass_g  year
##   <fct>           <dbl>         <dbl>             <dbl>       <dbl> <dbl>
## 1 female           42.1          16.4              197.       3862. 2008.
## 2 male             45.9          17.9              205.       4546. 2008.
```

```r
penguins |>
  select(where(is.numeric))
```

```
## # A tibble: 344 × 5
##    bill_length_mm bill_depth_mm flipper_length_mm body_mass_g  year
##             <dbl>         <dbl>             <int>       <int> <int>
##  1           39.1          18.7               181        3750  2007
##  2           39.5          17.4               186        3800  2007
##  3           40.3          18                 195        3250  2007
##  4           NA            NA                  NA          NA  2007
##  5           36.7          19.3               193        3450  2007
##  6           39.3          20.6               190        3650  2007
##  7           38.9          17.8               181        3625  2007
##  8           39.2          19.6               195        4675  2007
##  9           34.1          18.1               193        3475  2007
## 10           42            20.2               190        4250  2007
## # … with 334 more rows
```
…
```
## Error:
## ! Assigned data `"undefined"` must be compatible with existing data.
## ℹ Error occurred for column `sex`.
## ✖ Can't convert from <character> to <factor<8f119>> due to loss of generality.
## • Locations: 1.
```

```r
penguins[penguins$species == "Adelie",]
```

```
## # A tibble: 152 × 8
##    species island    bill_length_mm bill_depth_mm flipper_length_mm body_mass_g
##    <fct>   <fct>              <dbl>         <dbl>             <int>       <int>
##  1 Adelie  Torgersen           39.1          18.7               181        3750
##  2 Adelie  Torgersen           39.5          17.4               186        3800
##  3 Adelie  Torgersen           40.3          18                 195        3250
##  4 Adelie  Torgersen           NA            NA                  NA          NA
##  5 Adelie  Torgersen           36.7          19.3               193        3450
##  6 Adelie  Torgersen           39.3          20.6               190        3650
##  7 Adelie  Torgersen           38.9          17.8               181        3625
##  8 Adelie  Torgersen           39.2          19.6               195        4675
##  9 Adelie  Torgersen           34.1          18.1               193        3475
## 10 Adelie  Torgersen           42            20.2               190        4250
## # … with 142 more rows, and 2 more variables: sex <fct>, year <int>
```
…
